{
"outfits": {
"current_page": 1,
"data": [
{
"id": 1098,
"img_portada": "https://cdn.baguer.co/uploads/img_portada_outfit_17Bhsomg4at3YrcmZnzRvI9B0DIIhH1737475573.webp",
"video": null,
"autor_id": 0,
"campania_id": 81,
"fecha_publicacion": null,
"fecha_vigencia": null,
"nombre": "Sunset Steps",
"descripcion": "Con un aire relajado y moderno, la camiseta oversize color café de Unser se combina con el jogger relaxed bota recta negro de Typer. Las gafas de sol y los tenis oscuros añaden el toque final, creando una vibra urbana perfecta para cualquier ocasión.",
"genero_slug": "hombre",
"campania_slug": "chill_on_repeat",
"slug": "sunset_steps",
"campania_descripcion": "Stirpe redefine la vibra vacacional en un vibe relajado con estética urbana. Este drop encapsula los momentos de pausa que todos necesitamos, pero con el toque auténtico del streetwear.  La campaña nos recuerda que el estilo no se detiene, ni siquiera cuando desconectamos.",
"campania_titulo": "CHILL ON REPEAT",
"url_outfit": "/campaigns-hombre-chill_on_repeat-sunset_steps",
"imagenes_referencias": [
"https://cdn.baguer.co/uploads/2024/10/833877cfjpg-6zrlfwzrdhvknxkpxlc0xlrdfhgucdv4svabfvpgyxmuarhcmr1728078278.jpg",
"https://cdn.baguer.co/uploads/2024/12/deko-jogger-relaxed-bota-recta-typer-negro-835448NG.jpg_Ml5QPmMIxHHaldrjzdfWzQXHia6z0F297tOIdCqRaQmUzB4DuW.jpg"
]
},
{
"id": 1095,
"img_portada": "https://cdn.baguer.co/uploads/img_portada_outfit_zbbu65hfTtOMBwCFVYLnN9twawjyaa1737471411.webp",
"video": null,
"autor_id": 0,
"campania_id": 81,
"fecha_publicacion": null,
"fecha_vigencia": null,
"nombre": "Street Retreat",
"descripcion": "La T-shirt Unser color café se fusiona con el jean baggy de Groggy, creando un look relajado y moderno. La chaqueta de Gas, amarrada a la cintura, suma un toque desenfadado que se complementa perfectamente con los tenis New Balance, dando como resultado un outfit con actitud y ese aire urbano que define tu estilo.",
"genero_slug": "hombre",
"campania_slug": "chill_on_repeat",
"slug": "street_retreat",
"campania_descripcion": "Stirpe redefine la vibra vacacional en un vibe relajado con estética urbana. Este drop encapsula los momentos de pausa que todos necesitamos, pero con el toque auténtico del streetwear.  La campaña nos recuerda que el estilo no se detiene, ni siquiera cuando desconectamos.",
"campania_titulo": "CHILL ON REPEAT",
"url_outfit": "/campaigns-hombre-chill_on_repeat-street_retreat",
"imagenes_referencias": [
"https://cdn.baguer.co/uploads/2024/10/833228cfjpg-ucqxdxaaudp0hkjf3kqs6lmnre9exatpdaznrgt81vultmns4d1728078261.jpg",
"https://cdn.baguer.co/uploads/2024/09/ethan-jean-baggy-carpenter-masculino-groggy-azul-claro-833455AC.jpg_qZ3xzGe46oB3OmpB1klZK46yEODn3FdSnFY6J80ptUPwn2q4JM.jpg",
"https://cdn.baguer.co/uploads/2024/12/nite-chaqueta-masculina-gas-arena-832326AR.jpg_7jk5omu5u8uI9rgd6wcUkWOTs8RxTTjOquGKPZE9MH5unG7e4u.jpg",
"https://cdn.baguer.co/uploads/2024/12/tenis-new-balance-classics-traditionnels-beige-129715BG.jpg_UcQ48BUE5XCmoSLgD8PryHJY1YGKzOvYitSFiIIxBwSpsvkSwH.jpg"
]
},
{
"id": 1094,
"img_portada": "https://cdn.baguer.co/uploads/img_portada_outfit_Oqq9q38SEd93ez2ePVicpHpW3wpW501737470146.webp",
"video": null,
"autor_id": 0,
"campania_id": 81,
"fecha_publicacion": null,
"fecha_vigencia": null,
"nombre": "Urban Unwind",
"descripcion": "La camiseta oversize verde de Groggy y el jean cargo de Typer se complementan perfectamente para un look relajado y auténtico. La gorra 47 New York Yankees en caqui y los tenis New Balance añaden el toque urbano ideal para destacarte con estilo en cada paso.",
"genero_slug": "hombre",
"campania_slug": "chill_on_repeat",
"slug": "urban_unwind",
"campania_descripcion": "Stirpe redefine la vibra vacacional en un vibe relajado con estética urbana. Este drop encapsula los momentos de pausa que todos necesitamos, pero con el toque auténtico del streetwear.  La campaña nos recuerda que el estilo no se detiene, ni siquiera cuando desconectamos.",
"campania_titulo": "CHILL ON REPEAT",
"url_outfit": "/campaigns-hombre-chill_on_repeat-urban_unwind",
"imagenes_referencias": [
"https://cdn.baguer.co/uploads/2024/11/kian-t-shirt-oversize-masculina-groggy-verde-medio-834155VM.jpg_UGULZqZP75jphmopySb2nyv77KYmAz6lA5WoN2zr31CavuLdh0.jpg",
"https://cdn.baguer.co/uploads/2024/12/edward-jean-cargo-typer-azul-834746AZ.jpg_opoDpl1y7P1OdGuntokzcWp2RLQOd3Me7loxdjcen7k6PJkjrp.jpg",
"https://cdn.baguer.co/uploads/2024/12/gorra-47-new-york-yankees-raised-basic-caqui-129610KQ.jpg_gw7SdW8K8NAq1wr40owwdIP6cZen1O2ftxw1mONnHJmpuVj9rU.jpg",
"https://cdn.baguer.co/uploads/2024/11/tenis-new-balance-mens-blanco-129250BL.jpg_oqDFRSAz9vrUCduk4Epb4X5DbuMsh1AOX8k3cSkYeSlKsphF8T.jpg"
]
},
{
"id": 1092,
"img_portada": "https://cdn.baguer.co/uploads/img_portada_outfit_nXpsXhZFCHB0J2zygbmTMF3FGCFjfw1737466961.webp",
"video": null,
"autor_id": 0,
"campania_id": 81,
"fecha_publicacion": null,
"fecha_vigencia": null,
"nombre": "Cargo Essentials",
"descripcion": "La camiseta blanca de Groggy y el pantalón cargo de Unser se fusionan en un look urbano con la dosis perfecta de estilo relajado. Los tenis blancos con verde de Typer y las gafas completan el conjunto, creando una vibra vacacional que no pierde su esencia auténtica.",
"genero_slug": "hombre",
"campania_slug": "chill_on_repeat",
"slug": "cargo_essentials",
"campania_descripcion": "Stirpe redefine la vibra vacacional en un vibe relajado con estética urbana. Este drop encapsula los momentos de pausa que todos necesitamos, pero con el toque auténtico del streetwear.  La campaña nos recuerda que el estilo no se detiene, ni siquiera cuando desconectamos.",
"campania_titulo": "CHILL ON REPEAT",
"url_outfit": "/campaigns-hombre-chill_on_repeat-cargo_essentials",
"imagenes_referencias": [
"https://cdn.baguer.co/uploads/2024/12/asher-t-shirt-regular-masculino-groggy-blanco-834073BL.jpg_FAMR3tZf3FMQaqpLpf1tFW6nTi3SaibdsLs3ZQE32cWz8nV9Gp.jpg",
"https://cdn.baguer.co/uploads/2024/12/pantalon-para-hombre-tipo-cargo-unicolor-unser-cafe-832360CF.jpg_zmtjspAmypJ9EIOULpEq9M27nqD3LFCyMAdkIJdP12migzyEbb.jpg",
"https://cdn.baguer.co/uploads/2024/12/tenis-con-cordon-ajustable-en-material-typer-verde-833831VD.jpg_h5IhnzmF4J64YYyAHfDieXlTa2BfyXeNXVZloI65lKP6CGJnyR.jpg"
]
},
{
"id": 1090,
"img_portada": "https://cdn.baguer.co/uploads/img_portada_outfit_o8zZwyzRwk5EEM22OQJQV5olo7I7WK1737464559.webp",
"video": null,
"autor_id": 0,
"campania_id": 81,
"fecha_publicacion": null,
"fecha_vigencia": null,
"nombre": "Tides of Escape",
"descripcion": "Las prendas de Gas, como la camiseta estampada en verde y la camisa terracota de botones, crean un contraste cálido y dinámico. El jogger tipo cargo en color arena de Scout completa el outfit con un toque moderno y funcional, perfecto para desconectar con estilo.",
"genero_slug": "hombre",
"campania_slug": "chill_on_repeat",
"slug": "tides_of_escape",
"campania_descripcion": "Stirpe redefine la vibra vacacional en un vibe relajado con estética urbana. Este drop encapsula los momentos de pausa que todos necesitamos, pero con el toque auténtico del streetwear.  La campaña nos recuerda que el estilo no se detiene, ni siquiera cuando desconectamos.",
"campania_titulo": "CHILL ON REPEAT",
"url_outfit": "/campaigns-hombre-chill_on_repeat-tides_of_escape",
"imagenes_referencias": [
"https://cdn.baguer.co/uploads/2024/12/self-camiseta-estampada-regular-fit-masculina-gas-verde-medio-834151VM.jpg_tExS7BhVxo5SP5C3K8jm7iXln1Pjr4PoO8cMZ0hun6TOtbMI1F.jpg",
"https://cdn.baguer.co/uploads/2024/12/eyes-camisa-mc-masculina-gas-terracota-834429TR.jpg_2KXslrZLcDfvtowYEusQxGo0ryg7HZe5w3o2URakzQou3BZmrX.jpg",
"https://cdn.baguer.co/uploads/2024/12/jogger-scout-knitted-cargo-arena-129444AR.jpg_BkE7y5NII6t94zRw1NmgLTglzxc41vYfIZJ2rZ4ZHYCFMbuqF2.jpg"
]
},
{
"id": 1089,
"img_portada": "https://cdn.baguer.co/uploads/img_portada_outfit_qEKEv1o2T9W2AZUzoyynZd6jQshAu41737464013.webp",
"video": null,
"autor_id": 0,
"campania_id": 81,
"fecha_publicacion": null,
"fecha_vigencia": null,
"nombre": "Beach Mode",
"descripcion": "Un look fresco y urbano: el polo con cierre blanco de Typer y la bermuda en burda negra de Typer crean la base perfecta. Las medias caña alta de Unser y los tenis blancos de Typer aportan comodidad, mientras que la gorra bordada caqui de Typer completa el estilo con un toque relajado.",
"genero_slug": "hombre",
"campania_slug": "chill_on_repeat",
"slug": "beach_mode",
"campania_descripcion": "Stirpe redefine la vibra vacacional en un vibe relajado con estética urbana. Este drop encapsula los momentos de pausa que todos necesitamos, pero con el toque auténtico del streetwear.  La campaña nos recuerda que el estilo no se detiene, ni siquiera cuando desconectamos.",
"campania_titulo": "CHILL ON REPEAT",
"url_outfit": "/campaigns-hombre-chill_on_repeat-beach_mode",
"imagenes_referencias": [
"https://cdn.baguer.co/uploads/2024/12/833710bljpg-cctq09rdpd0rzpp0i4gh5agvrgosvnr0y9m3dvnfrtrxijwj0s1735333554.jpg",
"https://cdn.baguer.co/uploads/2024/11/francisco-bermuda-en-burda-typer-negro-833691NG.jpg_wVX4lJU3N0emURIMYQPMYVC9jtyttiaw1k86UNzrRoVJ4u5d3Z.jpg",
"https://cdn.baguer.co/uploads/2024/12/tenis-con-cordon-ajustable-en-material-typer-gris-833831GR.jpg_BL0JCpEPqUGPUmGrPpHsJW3tWxcDgVef4mGh2PFtUNVh5MQdNh.jpg",
"https://cdn.baguer.co/uploads/2024/11/eduardo-media-tripack-media-cana-unicolor-con-rayas-unser-unico-833891CU.jpg_D5x17y8uXPoqLKXKWZMCDdcQ440QnDnxjcX2MoJB5xvttBVebq.jpg",
"https://cdn.baguer.co/uploads/2024/12/miguel-gorra-bordada-typer-caqui-835045KQ.jpg_CwYxU1tAsyJZTigyDpJQZ2170LDsyPYD30EJnwQfaco9hPjWS1.jpg"
]
},
{
"id": 1086,
"img_portada": "https://cdn.baguer.co/uploads/img_portada_outfit_6rc7Fz0TQp1CCS838i3qQCb6FMlAbW1737411337.webp",
"video": null,
"autor_id": 0,
"campania_id": 81,
"fecha_publicacion": null,
"fecha_vigencia": null,
"nombre": "Urban Tides",
"descripcion": "La camiseta verde Groggy y la camisa ocre de Gas se combinan a la perfección, creando una capa ligera y fresca. La bermuda cargo de Typer, medias de rayas UNSER y tenis blancos suman el toque final para un outfit relajado, urbano y con mucha actitud.",
"genero_slug": "hombre",
"campania_slug": "chill_on_repeat",
"slug": "urban_tides",
"campania_descripcion": "Stirpe redefine la vibra vacacional en un vibe relajado con estética urbana. Este drop encapsula los momentos de pausa que todos necesitamos, pero con el toque auténtico del streetwear.  La campaña nos recuerda que el estilo no se detiene, ni siquiera cuando desconectamos.",
"campania_titulo": "CHILL ON REPEAT",
"url_outfit": "/campaigns-hombre-chill_on_repeat-urban_tides",
"imagenes_referencias": [
"https://cdn.baguer.co/uploads/2024/11/alden-t-shirt-regular-masculina-groggy-verde-834156VD.jpg_GgPrwKXu2z8pbFsuKYQ8XKrzkuRHKdwjHOjJIbB0gcSJlOEAgz.jpg",
"https://cdn.baguer.co/uploads/2024/10/king-camisa-corduroy-slim-masculina-gas-ocre-834270OC.jpg_svY1yJ7CWSwsXXs1LhyJM61QkHDSSbyHOXvfNVPuiva4yhfkxJ.jpg",
"https://cdn.baguer.co/uploads/2024/09/833658azjpg-8qfu3gpv34cffujkjmthfiislu07eafwbcxd0hguwmc1ako1df1725901052.jpg",
"https://cdn.baguer.co/uploads/2024/11/eduardo-media-tripack-media-cana-unicolor-con-rayas-unser-unico-833891CU.jpg_D5x17y8uXPoqLKXKWZMCDdcQ440QnDnxjcX2MoJB5xvttBVebq.jpg"
]
},
{
"id": 1085,
"img_portada": "https://cdn.baguer.co/uploads/img_portada_outfit_64yjNs7jeyfpJl9HEzSH9dOZyCwMyC1737411207.webp",
"video": null,
"autor_id": 0,
"campania_id": 81,
"fecha_publicacion": null,
"fecha_vigencia": null,
"nombre": "Sunset Escape",
"descripcion": "Comodidad y estilo: la gorra azul claro 47 New York Yankees se combina con la camiseta gris y el jean tipo carpintero relaxed fit de Typer. Un look relajado y con carácter, ideal para disfrutar del día con toda la vibra urbana y vacacional.",
"genero_slug": "hombre",
"campania_slug": "chill_on_repeat",
"slug": "sunset_escape",
"campania_descripcion": "Stirpe redefine la vibra vacacional en un vibe relajado con estética urbana. Este drop encapsula los momentos de pausa que todos necesitamos, pero con el toque auténtico del streetwear.  La campaña nos recuerda que el estilo no se detiene, ni siquiera cuando desconectamos.",
"campania_titulo": "CHILL ON REPEAT",
"url_outfit": "/campaigns-hombre-chill_on_repeat-sunset_escape",
"imagenes_referencias": [
"https://cdn.baguer.co/uploads/2024/12/gorra-47-new-york-yankees-azul-claro-129586AC.jpg_VhKCozex8edq6J8fpWqtcjEd5Uinb1pcONDnezB1TGPm5HZ0MO.jpg",
"https://cdn.baguer.co/uploads/2024/12/derian-jean-tipo-carpintero-relaxed-fit-typer-azul-833705AZ.jpg_mpelQHMYjAETnYAuQXhsSZlSN3wQW0te4q48xl0O49GqU634uB.jpg"
]
},
{
"id": 1082,
"img_portada": "https://cdn.baguer.co/uploads/img_portada_outfit_aIC1Wpt97ekrkmkaxQpAt7F8JNy9KV1737410737.webp",
"video": null,
"autor_id": 0,
"campania_id": 81,
"fecha_publicacion": null,
"fecha_vigencia": null,
"nombre": "City Escape",
"descripcion": "La camisa azul claro de botones de Gas se combina con la bermuda tipo cargo en color arena de Scout para un look relajado pero con actitud. La gorra 47 New York Yankees en café, medias Unser y tenis Asics verdes completan el conjunto, una vibra vacacional que no pasa desapercibida.",
"genero_slug": "hombre",
"campania_slug": "chill_on_repeat",
"slug": "city_escape",
"campania_descripcion": "Stirpe redefine la vibra vacacional en un vibe relajado con estética urbana. Este drop encapsula los momentos de pausa que todos necesitamos, pero con el toque auténtico del streetwear.  La campaña nos recuerda que el estilo no se detiene, ni siquiera cuando desconectamos.",
"campania_titulo": "CHILL ON REPEAT",
"url_outfit": "/campaigns-hombre-chill_on_repeat-city_escape",
"imagenes_referencias": [
"https://cdn.baguer.co/uploads/2024/12/gorra-47-new-york-yankees-cafe-129614CF.jpg_TMSbEXdgsavtNnZXMZPuO4z0Bj6lEHXsBALViukGj5W8BKyMQw.jpg",
"https://cdn.baguer.co/uploads/2024/12/eyes-camisa-mc-masculina-gas-azul-claro-834429AC.jpg_ftNqRmRI98yancCTiAGL18rNUjj9TZgSFyozs5c5McExJh90gL.jpg",
"https://cdn.baguer.co/uploads/2024/12/bermuda-scout-knitted-cargo-short-arena-129689AR.jpg_19r8GyPkBzmR8xziKez112mtUFJ7UHfqjojaeEFF8YD3QhnzxZ.jpg",
"https://cdn.baguer.co/uploads/2024/11/eduardo-media-tripack-media-cana-unicolor-con-rayas-unser-unico-833891CU.jpg_D5x17y8uXPoqLKXKWZMCDdcQ440QnDnxjcX2MoJB5xvttBVebq.jpg",
"https://cdn.baguer.co/uploads/2024/12/tenis-asics-gel-lyte-v-asics-verde-129651VD.jpg_ZYu8aRn7oxZbBzuEn97enoD3T7PjQ1ghlcML8a2likoLrx1MlO.jpg"
]
},
{
"id": 1081,
"img_portada": "https://cdn.baguer.co/uploads/img_portada_outfit_xN27efIXbODjgBS5j9YIk6YfrfXMlf1736874457.webp",
"video": null,
"autor_id": 0,
"campania_id": 79,
"fecha_publicacion": null,
"fecha_vigencia": null,
"nombre": "Friendship without limits.",
"descripcion": "El modelo luce un look urbano relajado con camiseta negra oversized de Typer, pantalones cargo color beige de Typer y tenis deportivas de Replay.  Un toque cool y moderno.",
"genero_slug": "hombre",
"campania_slug": "homies_squad",
"slug": "friendship_without_limits",
"campania_descripcion": "La narrativa sigue siendo sobre amistad, pero reinterpretada en un espacio minimalista donde la celebración es en grupo, mostrando cómo los \"Homies\" trascienden cualquier lugar para crear momentos juntos.",
"campania_titulo": "HOMIES SQUAD",
"url_outfit": "/campaigns-hombre-homies_squad-friendship_without_limits",
"imagenes_referencias": [
"https://cdn.baguer.co/uploads/2024/11/tenis-replay-destiny-m-tonal-gris-128406GR.jpg_9KxcN5wi2izkROrz1LQgJOwLVimqjlrIcJmMqbJ1kAec4zxaaH.jpg",
"https://cdn.baguer.co/uploads/2024/06/juanda-t-shirt-extraoversize-unicolor-typer-negro-833524NG.jpg_ndGBx53pLJT5as4FAF7lr4gPQw2wIoax30lR3i9pASwdd60Kc2.jpg"
]
},
{
"id": 1061,
"img_portada": "https://cdn.baguer.co/uploads/img_portada_outfit_muGi3nFe4A7ranJKKLCQT6yPdv9m3U1735251819.webp",
"video": null,
"autor_id": 0,
"campania_id": 79,
"fecha_publicacion": null,
"fecha_vigencia": null,
"nombre": "Homies with style",
"descripcion": "El outfit presenta una estética urbana relajada y cómoda.  Camiseta blanca básica de Typer, pantalones cargo verde oliva de Typer y tenis deportivas blancas con detalles turquesa de Puma.  Un look limpio, versátil y con un toque moderno.",
"genero_slug": "hombre",
"campania_slug": "homies_squad",
"slug": "homies_with_style",
"campania_descripcion": "La narrativa sigue siendo sobre amistad, pero reinterpretada en un espacio minimalista donde la celebración es en grupo, mostrando cómo los \"Homies\" trascienden cualquier lugar para crear momentos juntos.",
"campania_titulo": "HOMIES SQUAD",
"url_outfit": "/campaigns-hombre-homies_squad-homies_with_style",
"imagenes_referencias": [
"https://cdn.baguer.co/uploads/2024/12/david-t-shirt-extraoversize-estampada-typer-arena-833700AR.jpg_PXm8YRLUyLsOLP3zgFXkxb9v4k9bVqHH8rDZox05Nt1YFCuz04.jpg",
"https://cdn.baguer.co/uploads/2024/05/833168vojpg-9ugpufwlmrmybh6o8tp9zd4ytpmprb9azqgceazhsc2mgxmxv81715291185.jpg",
"https://cdn.baguer.co/uploads/2024/11/tenis-puma-mapf1-x-ray-speed-blanco-129377BL.jpg_sqKeeIzCqSI2Z9cIJ5zOT1t4qSWuuM3BnRG8UZXyrLX7jfv8IT.jpg"
]
},
{
"id": 1059,
"img_portada": "https://cdn.baguer.co/uploads/img_portada_outfit_7GqUYer0yj2ObGPIf8JvUNHVJkmQwZ1735251523.webp",
"video": null,
"autor_id": 0,
"campania_id": 79,
"fecha_publicacion": null,
"fecha_vigencia": null,
"nombre": "Style and good vibes",
"descripcion": "El outfit presenta una estética urbana fresca: camiseta blanca con un discreto logo de Girbaud, jeans holgados de estilo cargo de Groggy y tenis plateadas de Diesel que aportan un toque moderno y llamativo.",
"genero_slug": "hombre",
"campania_slug": "homies_squad",
"slug": "style_and_good_vibes",
"campania_descripcion": "La narrativa sigue siendo sobre amistad, pero reinterpretada en un espacio minimalista donde la celebración es en grupo, mostrando cómo los \"Homies\" trascienden cualquier lugar para crear momentos juntos.",
"campania_titulo": "HOMIES SQUAD",
"url_outfit": "/campaigns-hombre-homies_squad-style_and_good_vibes",
"imagenes_referencias": [
"https://cdn.baguer.co/uploads/2024/12/camiseta-girbaud-le-francois-mc-azul-128410AZ.jpg_4vA5E760BJVd6BJfXV9S0vUtjrR1e6UY5QoZZy4amFJT3NKl9w.jpg",
"https://cdn.baguer.co/uploads/2024/10/tenis-diesel-s-serendipity-pro-x1-plateado-129064PT.jpg_iONixlN7Tk7VjLp8RCUwubbwmVVOgKJkDxLaGKfimv5DeephP3.jpg"
]
},
{
"id": 1058,
"img_portada": "https://cdn.baguer.co/uploads/img_portada_outfit_ytNND2yellFbYz0brxvMOs2K6LWhp31735251135.webp",
"video": null,
"autor_id": 0,
"campania_id": 79,
"fecha_publicacion": null,
"fecha_vigencia": null,
"nombre": "Pure energy",
"descripcion": "El modelo luce un look urbano fresco y con mucho esti: camiseta blanca sencilla de Typer, shorts de mezclilla claros de Typer y zapatillas deportivas de New Balance, complementado con una gorra deportiva de Groggy.  Un estilo fresco y cómodo, perfecto para vivir la euforia de la amistad con tu Squad.",
"genero_slug": "hombre",
"campania_slug": "homies_squad",
"slug": "pure_energy",
"campania_descripcion": "La narrativa sigue siendo sobre amistad, pero reinterpretada en un espacio minimalista donde la celebración es en grupo, mostrando cómo los \"Homies\" trascienden cualquier lugar para crear momentos juntos.",
"campania_titulo": "HOMIES SQUAD",
"url_outfit": "/campaigns-hombre-homies_squad-pure_energy",
"imagenes_referencias": [
"https://cdn.baguer.co/uploads/2024/12/marc-bermuda-en-denim-relaxed-typer-azul-834500AZ.jpg_xbI1tWvsEhI89TgGwSGWmpt6t5hcetmW8hg3b9H7CMqNzMZYv8.jpg",
"https://cdn.baguer.co/uploads/2024/10/elian-t-shirt-oversize-estampada-typer-blanco-833702BL.jpg_zXe1DrT1Sf5g7CRGAVGB5VzwvnwloEcFrVpWQc5o7rjBxfjqfT.jpg",
"https://cdn.baguer.co/uploads/2024/12/gross-gorra-masculina-groggy-verde-834613VD.jpg_N07OyfZ5xsbNjPnn5rMXsawPMN1EMGRtq8L89ooISnv6pYdGfO.jpg",
"https://cdn.baguer.co/uploads/2024/09/tenis-new-balance-mens-550-blanco-127933BL.jpg_u47l2ccBVmKNBQwTn3Tnu5gMCxIklWYFVYKT8DSruHJbJMaqWM.jpg"
]
},
{
"id": 1056,
"img_portada": "https://cdn.baguer.co/uploads/img_portada_outfit_plVLYHqfgU8qgmJ8qtEd3rMUNlTZCw1735250900.webp",
"video": null,
"autor_id": 0,
"campania_id": 79,
"fecha_publicacion": null,
"fecha_vigencia": null,
"nombre": "Urban Legend is born here",
"descripcion": "Estética street style con camiseta verde de Typer, jeans con detalles de Groggy y sneakers urbanas de Diesel.  Un look fresco y moderno.",
"genero_slug": "hombre",
"campania_slug": "homies_squad",
"slug": "urban_legend_is_born_here",
"campania_descripcion": "La narrativa sigue siendo sobre amistad, pero reinterpretada en un espacio minimalista donde la celebración es en grupo, mostrando cómo los \"Homies\" trascienden cualquier lugar para crear momentos juntos.",
"campania_titulo": "HOMIES SQUAD",
"url_outfit": "/campaigns-hombre-homies_squad-urban_legend_is_born_here",
"imagenes_referencias": [
"https://cdn.baguer.co/uploads/2024/11/cole-jean-regular-flare-masculino-groggy-azul-medio-830662AD.jpg_vkf0xqHUUvmR2feNitqINR4sgYPqHOzzF1EzLJREgPWrq2ZLiw.jpg",
"https://cdn.baguer.co/uploads/2024/06/juanda-t-shirt-extraoversize-unicolor-typer-verde-833524VD.jpg_XnqPoyC4Ydd9rS0CVf5L2rNV63mfMQcVGOhGiwrg6c5VQImUo0.jpg",
"https://cdn.baguer.co/uploads/2024/12/miguel-gorra-bordada-typer-caqui-835045KQ.jpg_CwYxU1tAsyJZTigyDpJQZ2170LDsyPYD30EJnwQfaco9hPjWS1.jpg",
"https://cdn.baguer.co/uploads/2024/10/tenis-diesel-s-serendipity-pro-x1-plateado-129065PT.jpg_Ckx9ugpw22SS6JYI1ey8mTZZye9bcVpP1NwgzZlHFZnlNUUd7g.jpg"
]
},
{
"id": 1055,
"img_portada": "https://cdn.baguer.co/uploads/img_portada_outfit_g5DspaR3XE68nSpCKM0gCuAsf2Q5cW1735250752.webp",
"video": null,
"autor_id": 0,
"campania_id": 79,
"fecha_publicacion": null,
"fecha_vigencia": null,
"nombre": "Urban Energy",
"descripcion": "El outfit presenta una estética urbana relajada y cómoda.  Se compone de una camiseta gris sencilla de Girbaud, pantalones cargo color beige y zapatillas deportivas.  Un look perfecto para disfrutar de la amistad y la energía de la ciudad.",
"genero_slug": "hombre",
"campania_slug": "homies_squad",
"slug": "urban_energy",
"campania_descripcion": "La narrativa sigue siendo sobre amistad, pero reinterpretada en un espacio minimalista donde la celebración es en grupo, mostrando cómo los \"Homies\" trascienden cualquier lugar para crear momentos juntos.",
"campania_titulo": "HOMIES SQUAD",
"url_outfit": "/campaigns-hombre-homies_squad-urban_energy",
"imagenes_referencias": [
"https://cdn.baguer.co/uploads/2024/12/camiseta-girbaud-le-francois-mc-gris-128409GR.jpg_O8HRy4zs5hlmyG82MwDeLehWcnW8zdt78sbxKkvhaLH6hrbA7K.jpg",
"https://cdn.baguer.co/uploads/2024/11/reach-pantalon-masculino-gas-caqui-833655KQ.jpg_t711n94pVhVkfudXEAEgw8riQoWCucibhmDoTMXZNJnp6v3ERX.jpg"
]
},
{
"id": 1053,
"img_portada": "https://cdn.baguer.co/uploads/img_portada_outfit_dajPOd6qHUy2unOenBmtADnRxGP0QV1735250546.webp",
"video": null,
"autor_id": 0,
"campania_id": 79,
"fecha_publicacion": null,
"fecha_vigencia": null,
"nombre": "Together, Indestructible",
"descripcion": "El modelo luce un look urbano relajado con una camiseta polo blanca de punto de Unser, pantalones cargo verde oliva de Groggy y tenis deportivas de New Balance. Es un estilo cómodo pero con estilo.",
"genero_slug": "hombre",
"campania_slug": "homies_squad",
"slug": "together_indestructible",
"campania_descripcion": "La narrativa sigue siendo sobre amistad, pero reinterpretada en un espacio minimalista donde la celebración es en grupo, mostrando cómo los \"Homies\" trascienden cualquier lugar para crear momentos juntos.",
"campania_titulo": "HOMIES SQUAD",
"url_outfit": "/campaigns-hombre-homies_squad-together_indestructible",
"imagenes_referencias": [
"https://cdn.baguer.co/uploads/2024/12/polo-para-hombre-tejido-molderia-slim-unicolor-unser-arena-834273AR.jpg_gGUsqcFsmFZygu4jDCpDoijgA6sMatkzt3GsiSSA0yhHX1XBmb.jpg",
"https://cdn.baguer.co/uploads/2024/11/jaren-pantalon-straight-bpt-masculino-groggy-verde-833642VD.jpg_IprPfoiNJxpSSZgwt8D9BTbl03wVIDnEL76g7y7vTI6xAw10Dx.jpg",
"https://cdn.baguer.co/uploads/2024/11/tenis-new-balance-mens-blanco-129250BL.jpg_oqDFRSAz9vrUCduk4Epb4X5DbuMsh1AOX8k3cSkYeSlKsphF8T.jpg"
]
}
],
"first_page_url": "http://api.stirpe.co/api/outfits/catalogue/campaigns-hombre?page=1",
"from": 1,
"last_page": 18,
"last_page_url": "http://api.stirpe.co/api/outfits/catalogue/campaigns-hombre?page=18",
"next_page_url": "http://api.stirpe.co/api/outfits/catalogue/campaigns-hombre?page=2",
"path": "http://api.stirpe.co/api/outfits/catalogue/campaigns-hombre",
"per_page": 16,
"prev_page_url": null,
"to": 16,
"total": 288
},
"campania": "",
"genero": {
"slug": "hombre",
"descripcion": "Hombre"
},
"campanias": [],
"title": "Campañas para hombre"
}
